{
  "Users": [
    {
      "ID": 1,
      "FName": "John",
      "LName": "Doe",
      "Email": "johndoe@example.com",
      "Password": "P_assword",
      "IsAdmin": true,
      "MobileNumber": "1234567890",
      "Orders": [
        {
          "ID": 1,
          "Date": "2023-03-20",
          "Status": "Processing",
          "Total": 125.50,
          "OrderProducts": [
            {
              "OrderID": 1,
              "ProductID": 2,
              "Quantity": 3,
              "Price": 25.00,
              "SubTotal": 75.00
            },
            {
              "OrderID": 1,
              "ProductID": 5,
              "Quantity": 2,
              "Price": 25.00,
              "SubTotal": 50.00
            }
          ]
        },
        {
          "ID": 3,
          "Date": "2023-03-18",
          "Status": "Delivered",
          "Total": 75.00,
          "OrderProducts": [
            {
              "OrderID": 3,
              "ProductID": 1,
              "Quantity": 1,
              "Price": 75.00,
              "SubTotal": 75.00
            }
          ]
        }
      ]
    },